{
	"offer"	:	"9",
	"pid"	:	"hkg7as",
	"return"	:	"thanks.php",
	"yandex"	:	"",
	"facebook"	:	"",
    "partners": {
        "global": "1",
        "neogara": "0",
        "partner": "0"
    },
    "language": "PL",
    "sitename": "Maximizer"
}